Joining 2: Mismatched Values, One-to-Many & Multi-Key Joins
…
Q: Calculate Oil Consumption per Capita

We have two datasets containing information about countries: - oil_consumption: Contains yearly oil consumption in thousands of barrels per day - tidyr_population: Contains yearly population data

# View the datasets
oil_consumption

# A tibble: 1,520 × 3
   country     year oil_consump
   <chr>      <dbl>       <dbl>
 1 UAE         1995    20800000
 2 Argentina   1995    20300000
 3 Australia   1995    36500000
 4 Austria     1995    11300000
 5 Azerbaijan  1995     6580000
 6 Belgium     1995    27900000
 7 Bangladesh  1995     2930000
 8 Bulgaria    1995     6210000
 9 Belarus     1995    10700000
10 Brazil      1995    72000000
# ℹ 1,510 more rows

tidyr_population

# A tibble: 4,045 × 3
   country      year population
   <chr>       <dbl>      <dbl>
 1 Afghanistan  1995   17586073
 2 Afghanistan  1996   18415307
 3 Afghanistan  1997   19021226
 4 Afghanistan  1998   19496836
 5 Afghanistan  1999   19987071
 6 Afghanistan  2000   20595360
 7 Afghanistan  2001   21347782
 8 Afghanistan  2002   22202806
 9 Afghanistan  2003   23116142
10 Afghanistan  2004   24018682
# ℹ 4,035 more rows
…
inner_join(asia_countries, asia_population)

Joining with `by = join_by(Country)`

# A tibble: 0 × 4
# ℹ 4 variables: Country <chr>, Capital <chr>, Population <dbl>,
#   Life_Expectancy <dbl>

Real Data Example 1: Key Typos

Let’s now return to the oil consumption example.

oil_consumption

# A tibble: 1,520 × 3
   country     year oil_consump
   <chr>      <dbl>       <dbl>
 1 UAE         1995    20800000
 2 Argentina   1995    20300000
 3 Australia   1995    36500000
 4 Austria     1995    11300000
 5 Azerbaijan  1995     6580000
 6 Belgium     1995    27900000
 7 Bangladesh  1995     2930000
 8 Bulgaria    1995     6210000
 9 Belarus     1995    10700000
10 Brazil      1995    72000000
# ℹ 1,510 more rows

tidyr_population

# A tibble: 4,045 × 3
   country      year population
   <chr>       <dbl>      <dbl>
 1 Afghanistan  1995   17586073
 2 Afghanistan  1996   18415307
 3 Afghanistan  1997   19021226
 4 Afghanistan  1998   19496836
 5 Afghanistan  1999   19987071
 6 Afghanistan  2000   20595360
 7 Afghanistan  2001   21347782
 8 Afghanistan  2002   22202806
 9 Afghanistan  2003   23116142
10 Afghanistan  2004   24018682
# ℹ 4,035 more rows
…
It is hard to be sure whether this is because the population data is not available for these countries or because the country names are not spelled the same way in the two datasets.

To avoid such mismatches, it is often useful to use country codes rather than country names as the key.

Let’s now add country codes to both datasets and try the join again.

oil_consumption <- oil_consumption |>
    mutate(country_code = countrycode(country, origin = "country.name", destination = "iso3c"))

tidyr_population <- tidyr_population |>
    mutate(country_code = countrycode(country, origin = "country.name", destination = "iso3c"))

left_join(oil_consumption, tidyr_population, by = c("country_code", "year"))

# A tibble: 1,520 × 6
   country.x   year oil_consump country_code country.y            population
   <chr>      <dbl>       <dbl> <chr>        <chr>                     <dbl>
 1 UAE         1995    20800000 ARE          United Arab Emirates    2346305
 2 Argentina   1995    20300000 ARG          Argentina              34833168
 3 Australia   1995    36500000 AUS          Australia              18124234
 4 Austria     1995    11300000 AUT          Austria                 7985372
 5 Azerbaijan  1995     6580000 AZE          Azerbaijan              7770806
 6 Belgium     1995    27900000 BEL          Belgium                10161914
 7 Bangladesh  1995     2930000 BGD          Bangladesh            119869585
 8 Bulgaria    1995     6210000 BGR          Bulgaria                8358116
 9 Belarus     1995    10700000 BLR          Belarus                10189075
10 Brazil      1995    72000000 BRA          Brazil                161890816
# ℹ 1,510 more rows
…
# A tibble: 0 × 4
# ℹ 4 variables: country <chr>, year <dbl>, population <dbl>,
#   country_code <chr>

Nope. We don’t have it.

Q: Merging TB Cases with Geographic Data

Run the code to view the two datasets.

The first, oil_2012 records the oil consumption for the year 2012:

oil_2012

# A tibble: 80 × 4
   country     year oil_consump country_code
   <chr>      <dbl>       <dbl> <chr>       
 1 UAE         2012    35200000 ARE         
 2 Argentina   2012    28600000 ARG         
 3 Australia   2012    46100000 AUS         
 4 Austria     2012    11900000 AUT         
 5 Azerbaijan  2012     4170000 AZE         
 6 Belgium     2012    29900000 BEL         
 7 Bangladesh  2012     5440000 BGD         
 8 Bulgaria    2012     4110000 BGR         
 9 Belarus     2012    10400000 BLR         
10 Brazil      2012   116000000 BRA         
# ℹ 70 more rows

And country_regions lists countries along with their respective regions and continents:

country_regions

# A tibble: 242 × 3
   country_name        country_code continent 
   <chr>               <chr>        <chr>     
 1 Afghanistan         AFG          Asia      
 2 Albania             ALB          Europe    
 3 Algeria             DZA          Africa    
 4 American Samoa      ASM          Oceania   
 5 Andorra             AND          Europe    
 6 Angola              AGO          Africa    
 7 Anguilla            AIA          Americas  
 8 Antarctica          ATA          Antarctica
 9 Antigua and Barbuda ATG          Americas  
10 Argentina           ARG          Americas  
# ℹ 232 more rows
…
